…
    ## Rows: 10099 Columns: 33
    ## ── Column specification ────────────────────────────────────────────────────────
    ## Delimiter: ","
    ## chr  (22): email_domain, phone_model, billing_city, billing_postal, billing_...
    ## dbl  (10): monthly_minutes, customer_service_calls, streaming_minutes, total...
    ## date  (1): customer_reg_date
    ## 
    ## ℹ Use `spec()` to retrieve the full column specification for this data.
    ## ℹ Specify the column types or set `show_col_types = FALSE` to quiet this message.

``` r
churn_train
```

    ## # A tibble: 90,901 × 34
    ##    monthly_…¹ custo…² strea…³ total…⁴ prev_…⁵ late_…⁶ ip_ad…⁷ phone…⁸ customer…⁹
    ##         <dbl>   <dbl>   <dbl>   <dbl>   <dbl>   <dbl>   <dbl>   <dbl> <date>    
    ##  1      22604       2   26525     285      47       5   16767     253 2020-04-15
    ##  2      17059       2   16887     201      45       5   53966     241 2020-04-12
    ##  3      25848       2   26783     264      44       6   19278     232 2020-02-22
    ##  4      22080       3   23649     274      49       6   16680     236 2020-08-05
    ##  5      23871       3    7705     236      61       5   51308     243 2019-11-16
    ##  6      28098       3   12062     307      58       6   48219     243 2020-01-24
    ##  7      14368       1   19082     283      71       5   21944     250 2020-01-29
    ##  8      16432       0   14182     249      80       5   21352     231 2020-06-10
    ##  9      24091       2   20752     238      39       6   47892     234 2020-02-21
    ## 10      19608       2   29231     170      39       7   45808     243 2020-10-16
    ## # … with 90,891 more rows, 25 more variables: email_domain <chr>,
    ## #   phone_model <chr>, billing_city <chr>, billing_postal <chr>,
    ## #   billing_state <chr>, partner <chr>, phone_service <chr>,
    ## #   multiple_lines <chr>, streaming_plan <chr>, mobile_hotspot <chr>,
    ## #   wifi_calling_text <chr>, online_backup <chr>, device_protection <chr>,
    ## #   number_phones <dbl>, contract_code <chr>, currency_code <chr>,
    ## #   maling_code <chr>, paperless_billing <chr>, payment_method <chr>, …
…
### Logistic model performance & top 10 important variables

``` r
logistic_workflow %>%
 pull_workflow_fit() %>%
  tidy() %>%
  mutate_if(is.numeric,round,2)
```

    ## Warning: `pull_workflow_fit()` was deprecated in workflows 0.2.3.
    ## ℹ Please use `extract_fit_parsnip()` instead.

    ## # A tibble: 21 × 5
    ##    term               estimate std.error statistic p.value
    ##    <chr>                 <dbl>     <dbl>     <dbl>   <dbl>
    ##  1 (Intercept)           15.1       0.38      40.1       0
    ##  2 monthly_minutes        0         0         23.1       0
    ##  3 streaming_minutes      0         0         21.8       0
    ##  4 total_billed          -0.04      0        -56.4       0
    ##  5 prev_balance          -0.03      0        -14.0       0
    ##  6 late_payments         -0.33      0.02     -17.0       0
    ##  7 number_phones         -0.73      0.02     -34.0       0
    ##  8 partner_Yes            0.51      0.05      11.1       0
    ##  9 phone_service_Yes     -0.57      0.04     -12.8       0
    ## 10 multiple_lines_Yes     0.51      0.05      10.0       0
    ## # … with 11 more rows
…
